<svg width="190" height="190" viewBox="0 0 190 190" fill="none" xmlns="http://www.w3.org/2000/svg">
<circle cx="95" cy="95" r="95" fill="#FAFAFA"/>
<path d="M107.178 138.086H97.2514C95.8385 138.086 94.693 139.231 94.693 140.644C94.693 142.058 95.8385 143.203 97.2514 143.203H107.178C108.711 143.203 109.957 144.449 109.957 145.981C109.957 147.513 108.711 148.759 107.178 148.759H80.4555C76.4385 148.759 72.661 146.988 70.0922 143.9L63.7016 136.219C60.2726 132.097 55.2821 129.683 49.9423 129.53V114.417H59.362C64.0074 114.417 68.4058 116.194 71.7476 119.42L85.5405 132.734C86.5155 133.675 86.5611 135.251 85.6418 136.247C84.7048 137.261 83.1144 137.328 82.0963 136.395L71.2676 126.468C70.2265 125.514 68.608 125.584 67.6534 126.625C66.6985 127.667 66.7689 129.285 67.8105 130.24L78.6392 140.166C80.0996 141.505 81.9477 142.166 83.7912 142.166C85.8493 142.166 87.9015 141.342 89.4016 139.717C92.192 136.694 92.0541 131.91 89.0941 129.052L75.3012 115.739C71.0005 111.587 65.3399 109.301 59.362 109.301H49.4454C48.4829 107.023 46.2254 105.42 43.6008 105.42H31.5583C30.1455 105.42 29 106.565 29 107.978V126.686C29 128.099 30.1455 129.244 31.5583 129.244C32.9712 129.244 34.1167 128.099 34.1167 126.686V110.536H43.6011C44.2766 110.536 44.8259 111.086 44.8259 111.761V132.266C44.8259 132.942 44.2766 133.491 43.6011 133.491H40.944C39.5312 133.491 38.3857 134.636 38.3857 136.049C38.3857 137.462 39.5312 138.608 40.944 138.608H43.6008C46.2608 138.608 48.5417 136.961 49.482 134.634C53.4703 134.657 57.2159 136.423 59.7683 139.491L66.1589 147.173C69.7031 151.433 74.9139 153.876 80.4555 153.876H107.178C111.532 153.876 115.073 150.335 115.073 145.981C115.073 141.628 111.532 138.086 107.178 138.086Z" fill="#353535"/>
<path d="M157.441 66.7565C156.029 66.7565 154.883 67.9017 154.883 69.3148V86.4638H145.399C144.723 86.4638 144.174 85.9142 144.174 85.239V64.7337C144.174 64.0585 144.723 63.5089 145.399 63.5089H147.868C149.281 63.5089 150.426 62.3637 150.426 60.9506C150.426 59.5377 149.281 58.3922 147.868 58.3922H145.399C142.739 58.3922 140.458 60.0389 139.517 62.366C135.529 62.3432 131.784 60.577 129.231 57.5087L122.841 49.8276C119.297 45.5673 114.086 43.1238 108.544 43.1238H81.8213C77.4681 43.1238 73.9263 46.6654 73.9263 51.0186C73.9263 55.3718 77.4681 58.9134 81.8213 58.9134H92.7485C94.1614 58.9134 95.3069 57.7682 95.3069 56.3551C95.3069 54.942 94.1614 53.7967 92.7485 53.7967H81.8213C80.2892 53.7967 79.0427 52.5504 79.0427 51.0184C79.0427 49.4865 80.289 48.24 81.8213 48.24H108.544C112.561 48.24 116.339 50.011 118.908 53.0993L125.298 60.7804C128.727 64.9023 133.718 67.3163 139.057 67.4693V82.5821H129.638C124.992 82.5821 120.594 80.8055 117.252 77.5796L103.459 64.266C102.484 63.3247 102.439 61.7488 103.358 60.7528C104.295 59.7378 105.885 59.6718 106.903 60.6049L117.732 70.5312C118.774 71.4858 120.392 71.4157 121.347 70.3741C122.302 69.3325 122.231 67.7142 121.19 66.7596L110.361 56.8335C107.27 54.0004 102.442 54.2023 99.5981 57.2828C96.8077 60.306 96.9456 65.0901 99.9057 67.9473L113.699 81.2609C117.999 85.4125 123.66 87.6988 129.638 87.6988H139.554C140.517 89.977 142.774 91.5799 145.399 91.5799H157.442C158.855 91.5799 160 90.4347 160 89.0216V69.3143C160 67.9017 158.854 66.7565 157.441 66.7565Z" fill="#353535"/>
<path d="M111.601 130.135C111.019 128.848 109.507 128.273 108.221 128.855C106.925 129.419 106.332 130.926 106.896 132.222C107.316 133.184 108.256 133.759 109.243 133.759C109.584 133.759 109.931 133.69 110.263 133.546C110.274 133.541 110.308 133.526 110.318 133.521C111.606 132.94 112.183 131.423 111.601 130.135Z" fill="#353535"/>
<path d="M117.96 125.828C117.124 124.692 115.516 124.455 114.379 125.288C113.239 126.123 112.992 127.724 113.826 128.863C114.327 129.548 115.104 129.911 115.892 129.911C116.417 129.911 116.946 129.75 117.402 129.417C117.406 129.414 117.43 129.396 117.434 129.393C118.567 128.554 118.796 126.963 117.96 125.828Z" fill="#353535"/>
<path d="M104.449 133.007C104.157 131.629 102.805 130.747 101.425 131.032C100.048 131.306 99.1473 132.64 99.4113 134.022C99.6457 135.247 100.718 136.1 101.921 136.1C102.08 136.1 102.242 136.085 102.404 136.054C102.421 136.05 102.463 136.042 102.48 136.038C103.862 135.746 104.741 134.389 104.449 133.007Z" fill="#353535"/>
<path d="M123.305 120.263C122.256 119.317 120.638 119.4 119.692 120.45C119.679 120.464 119.65 120.497 119.637 120.511C118.714 121.581 118.834 123.196 119.903 124.119C120.387 124.536 120.981 124.741 121.573 124.741C122.284 124.741 122.99 124.446 123.495 123.872C124.437 122.823 124.352 121.208 123.305 120.263ZM121.876 122.421L121.592 122.163L121.9 122.441L121.876 122.421Z" fill="#353535"/>
<path d="M129.816 106.399C128.464 105.989 127.034 106.76 126.624 108.113C126.208 109.463 126.966 110.894 128.317 111.31C128.567 111.387 128.821 111.424 129.07 111.424C130.163 111.424 131.176 110.717 131.514 109.617L131.525 109.582C131.935 108.23 131.168 106.809 129.816 106.399Z" fill="#353535"/>
<path d="M133.093 93.1951C133.087 93.1626 133.081 93.1301 133.074 93.0976C132.786 91.715 131.431 90.8305 130.048 91.1188C128.671 91.4059 127.786 92.7527 128.063 94.1298C128.298 95.3505 129.367 96.2048 130.572 96.2048C130.722 96.2048 130.874 96.1917 131.026 96.1644C132.417 95.9154 133.342 94.586 133.093 93.1951Z" fill="#353535"/>
<path d="M130.747 98.746C129.344 98.6222 128.098 99.6623 127.974 101.069C127.972 101.094 127.968 101.145 127.966 101.17C127.884 102.58 128.959 103.791 130.37 103.874C130.421 103.877 130.472 103.878 130.522 103.878C131.854 103.878 132.974 102.848 133.072 101.507C133.189 100.105 132.15 98.8699 130.747 98.746Z" fill="#353535"/>
<path d="M127.312 113.679C126.084 112.982 124.522 113.414 123.825 114.643L123.79 114.707C123.116 115.949 123.571 117.513 124.812 118.187C125.203 118.399 125.623 118.499 126.038 118.499C126.94 118.499 127.813 118.02 128.275 117.169L126.051 115.904L128.276 117.166C128.973 115.936 128.541 114.375 127.312 113.679Z" fill="#353535"/>
<path d="M80.9125 64.9568C80.2808 63.6928 78.7433 63.1803 77.4804 63.8126L77.4576 63.8238C76.1937 64.4558 75.693 65.9866 76.3249 67.2503C76.7724 68.1455 77.6792 68.6608 78.6192 68.6608C79.0066 68.6608 79.3996 68.5733 79.7683 68.3891C81.0322 67.7574 81.5442 66.2207 80.9125 64.9568Z" fill="#353535"/>
<path d="M88.3137 62.8237C87.9808 61.451 86.5997 60.6072 85.2245 60.9403C85.2127 60.9431 85.1764 60.9523 85.1646 60.9554C83.7963 61.308 82.9675 62.7042 83.3199 64.0723C83.6174 65.2267 84.6529 65.994 85.7912 65.994C86.002 65.994 86.2164 65.9677 86.4303 65.9127C87.8033 65.5798 88.6466 64.1969 88.3137 62.8237Z" fill="#353535"/>
<path d="M74.1478 68.646C73.2631 67.5466 71.6522 67.3739 70.5515 68.2566L72.1376 70.2638L70.5438 68.2625C69.4385 69.1427 69.2561 70.752 70.136 71.8573C70.6415 72.4918 71.3869 72.8222 72.1393 72.8222C72.6976 72.8222 73.2603 72.64 73.7313 72.2652L73.7651 72.238C74.8627 71.3515 75.0326 69.7455 74.1478 68.646Z" fill="#353535"/>
<path d="M60.5072 86.8483C59.144 86.4768 57.7378 87.2799 57.3661 88.6431C57.3597 88.6664 57.3474 88.7148 57.3415 88.7383C57.0089 90.111 57.8522 91.4913 59.2246 91.8247C59.4273 91.8739 59.6299 91.8974 59.8295 91.8974C60.9773 91.8974 62.0201 91.1186 62.3108 89.9577C62.6616 88.6048 61.86 87.2172 60.5072 86.8483Z" fill="#353535"/>
<path d="M58.8774 94.3652C57.4633 94.2866 56.2572 95.361 56.1753 96.7713C56.1732 96.8043 56.172 96.837 56.1709 96.8698C56.1295 98.2814 57.2402 99.4576 58.652 99.4998C58.6781 99.5005 58.7037 99.5011 58.7295 99.5011C60.1009 99.5011 61.2341 98.4129 61.2848 97.0353C61.3488 95.6386 60.2772 94.4466 58.8774 94.3652Z" fill="#353535"/>
<path d="M63.727 79.857C62.4756 79.2005 60.9294 79.6828 60.2731 80.9339L60.2314 81.0163C59.6079 82.2836 60.1309 83.8141 61.3979 84.4382C61.7607 84.617 62.1452 84.7015 62.5247 84.7015C63.4642 84.7015 64.3686 84.1815 64.8169 83.286C65.454 82.0392 64.9699 80.5092 63.727 79.857Z" fill="#353535"/>
<path d="M68.3473 73.7018C67.2601 72.7994 65.6472 72.9491 64.7448 74.0359C64.7325 74.051 64.7043 74.0858 64.6921 74.1009C63.815 75.208 64.0025 76.8143 65.1091 77.6919C65.5789 78.0647 66.1392 78.2453 66.6959 78.2453C67.4464 78.2453 68.1904 77.9168 68.6957 77.2869C69.582 76.2003 69.4285 74.5996 68.3473 73.7018Z" fill="#353535"/>
<path d="M61.7686 104.136C61.5197 102.745 60.1895 101.82 58.7994 102.069C57.4085 102.318 56.4831 103.647 56.732 105.038L56.7366 105.063C56.9582 106.3 58.0321 107.159 59.2451 107.159C59.3963 107.159 59.5496 107.145 59.7036 107.118C61.0944 106.869 62.0178 105.527 61.7686 104.136Z" fill="#353535"/>
<path d="M103.284 84.7155C99.954 84.7155 96.8686 86.0886 94.67 88.406C92.4712 86.0886 89.386 84.7155 86.056 84.7155C79.5053 84.7155 74.176 90.0447 74.176 96.5955C74.176 100.13 75.7349 103.457 78.4527 105.723C78.469 105.737 78.4859 105.75 78.5028 105.764L93.0819 117.306C93.5471 117.674 94.1084 117.858 94.6698 117.858C95.2337 117.858 95.7976 117.673 96.2638 117.301L111.461 105.196C111.535 105.137 111.606 105.074 111.673 105.007C113.924 102.762 115.164 99.7745 115.164 96.5955C115.164 90.0447 109.835 84.7155 103.284 84.7155ZM108.153 101.291L94.6654 112.034L81.7062 101.774C80.172 100.484 79.2926 98.5981 79.2926 96.596C79.2924 92.8664 82.3266 89.8321 86.056 89.8321C88.8016 89.8321 91.2551 91.4719 92.3067 94.0095C92.703 94.9652 93.6356 95.5884 94.67 95.5884C95.7045 95.5884 96.6371 94.9654 97.0334 94.0095C98.085 91.4719 100.538 89.8321 103.284 89.8321C107.013 89.8321 110.048 92.8663 110.048 96.5957C110.048 98.3617 109.376 100.024 108.153 101.291Z" fill="#353535"/>
<path d="M31.5583 138.599C32.9663 138.599 34.1077 137.458 34.1077 136.05C34.1077 134.642 32.9663 133.5 31.5583 133.5C30.1503 133.5 29.009 134.642 29.009 136.05C29.009 137.458 30.1503 138.599 31.5583 138.599Z" fill="#353535"/>
<path d="M157.441 63.4994C158.849 63.4994 159.991 62.358 159.991 60.95C159.991 59.542 158.849 58.4006 157.441 58.4006C156.033 58.4006 154.892 59.542 154.892 60.95C154.892 62.358 156.033 63.4994 157.441 63.4994Z" fill="#353535"/>
</svg>

