<svg width="190" height="190" viewBox="0 0 190 190" fill="none" xmlns="http://www.w3.org/2000/svg">
<circle cx="95" cy="95" r="95" fill="#FAFAFA"/>
<g clip-path="url(#clip0_18_3)">
<path d="M34.3 159.025H45.05C47.4248 159.025 49.35 157.099 49.35 154.725C49.3442 150.999 46.9399 147.7 43.3945 146.555L44.5985 141.825C47.6927 141.483 50.7328 140.761 53.65 139.675V154.725C53.65 157.099 55.5752 159.025 57.95 159.025H68.7C71.0748 159.025 73 157.099 73 154.725C72.9665 151.023 70.5674 147.757 67.0445 146.619L68.1625 141.825C76.6712 142.028 84.02 135.91 85.3625 127.506C89.9115 128.697 94.634 129.082 99.316 128.645L104.218 155.413C104.596 157.481 106.415 158.973 108.518 158.939H128.9C131.275 158.939 133.2 157.013 133.2 154.639C133.207 150.711 130.553 147.278 126.75 146.297V121.722C131.996 116.605 135.35 105.275 135.35 92.3746C135.365 88.0459 134.962 83.7258 134.146 79.4746H143.95C151.492 79.0848 157.75 73.5064 159 66.0586C159.318 63.9534 158.047 61.9327 156.012 61.3071L143.757 57.7166C142.724 52.289 138.349 48.1218 132.878 47.3536C131.975 43.2901 129.18 33.5291 122.859 30.3686C121.906 29.8692 120.767 29.8777 119.821 30.3913C118.876 30.9049 118.249 31.856 118.15 32.9271L116.194 51.5246C115.957 53.9326 115.334 53.9111 107.422 73.9706C105.187 79.8213 99.6015 83.7098 93.339 83.7746H56.2085C53.5942 83.7826 51.2336 82.2118 50.2315 79.7971C47.7369 73.6655 45.9271 67.2771 44.835 60.7481C44.6612 59.4072 43.6642 58.3198 42.3433 58.0306C41.0225 57.7414 39.6623 58.3126 38.944 59.4581C33.397 68.1871 31.6985 87.4081 39.9545 98.3732C35.9083 105.544 35.3312 114.162 38.385 121.808L31.935 128.258C30.6987 129.47 30.0014 131.128 30 132.859V154.725C30 157.099 31.9252 159.025 34.3 159.025ZM108.432 154.725L103.573 128.108C105.144 127.773 106.688 127.328 108.196 126.775C114.409 159.971 108.905 130.645 113.42 154.725H108.432ZM100.95 86.4406V111.725C100.95 112.912 99.9874 113.875 98.8 113.875H64.4C63.2126 113.875 62.25 112.912 62.25 111.725V88.0746H93.339C95.9614 88.0597 98.5525 87.5034 100.95 86.4406ZM34.3 132.859C34.2967 132.288 34.521 131.738 34.9235 131.333L41.3735 124.883C42.5476 123.675 42.909 121.894 42.298 120.325C39.8347 113.944 40.3066 106.803 43.588 100.803C44.5064 99.3657 44.4466 97.5119 43.4375 96.1371C40.0886 91.2413 38.3936 85.4027 38.6 79.4746C38.4165 74.3379 39.2796 69.2174 41.137 64.4246C42.3103 70.2287 44.0308 75.9086 46.2755 81.3881C47.9239 85.4253 51.8478 88.0668 56.2085 88.0746H57.95V111.725C57.95 115.287 60.8378 118.175 64.4 118.175H98.8C102.362 118.175 105.25 115.287 105.25 111.725V83.9036C108.034 81.7518 110.17 78.8723 111.421 75.5831L119.419 56.2331C120.515 53.5456 120.322 53.5026 122.257 35.0986C126.191 38.4311 128.384 46.5581 128.922 49.7186C129.091 50.762 129.993 51.5277 131.05 51.5246C135.582 51.5143 139.344 55.0226 139.65 59.5441C139.714 60.4435 140.332 61.2075 141.198 61.4576L154.7 65.4566C153.747 70.7655 149.328 74.7603 143.95 75.1746H126.75C125.563 75.1746 124.6 76.1372 124.6 77.3246C124.6 78.5121 125.563 79.4746 126.75 79.4746H129.739C132.491 92.3746 130.642 106.522 126.75 114.305V113.875C126.75 112.687 125.787 111.725 124.6 111.725C123.413 111.725 122.45 112.687 122.45 113.875V148.275C122.45 149.462 123.413 150.425 124.6 150.425C126.975 150.425 128.9 152.35 128.9 154.725H117.785C112.216 125.033 118.387 157.864 112.41 126.065C112.179 124.831 111.421 123.759 110.334 123.13C109.247 122.502 107.939 122.38 106.755 122.797C100.209 124.965 93.1763 125.197 86.502 123.464C85.3595 123.169 84.1461 123.356 83.146 123.983C82.1459 124.609 81.447 125.618 81.213 126.775C79.063 136.278 72.14 137.718 68.1625 137.718C66.2087 137.737 64.5131 139.07 64.0345 140.965L62.8735 145.609C62.3321 147.788 63.559 150.017 65.69 150.726C67.4457 151.277 68.6558 152.885 68.7 154.725H57.95V124.625C57.95 123.437 56.9874 122.475 55.8 122.475C54.6126 122.475 53.65 123.437 53.65 124.625V135.074C50.6438 136.357 47.4624 137.183 44.2115 137.525C42.3875 137.69 40.8687 138.994 40.4275 140.771L39.2235 145.587C38.7324 147.738 39.9494 149.912 42.04 150.618C43.833 151.182 45.052 152.845 45.05 154.725H34.3L34.3 132.859Z" fill="#353535"/>
<path d="M75.15 103.1H79.45V107.4C79.45 108.587 80.4126 109.55 81.6 109.55C82.7874 109.55 83.75 108.587 83.75 107.4V103.1H88.05C89.2374 103.1 90.2 102.137 90.2 100.95C90.2 99.7626 89.2374 98.8 88.05 98.8H83.75V94.5C83.75 93.3126 82.7874 92.35 81.6 92.35C80.4126 92.35 79.45 93.3126 79.45 94.5V98.8H75.15C73.9626 98.8 73 99.7626 73 100.95C73 102.137 73.9626 103.1 75.15 103.1Z" fill="#353535"/>
</g>
<defs>
<clipPath id="clip0_18_3">
<rect width="129" height="129" fill="white" transform="translate(30 30)"/>
</clipPath>
</defs>
</svg>
